@0
## 4 NODES 5/5

MOV UP ACC # X
SAV # X BAK
MOV UP ACC # Y ACC
MOV UP DOWN # H
MOV ACC DOWN
SWP
MOV ACC DOWN

LOOP:
 MOV UP DOWN #X
 MOV UP DOWN #Y
 MOV UP DOWN #H
JMP LOOP

@1


@2


@3


@4


@5


@6
ST:MOV UP ACC #H
SAV # H BAK
MOV UP ACC # Y ACC
MOV UP RIGHT #X
SWP

LOOP: SWP
 MOV ACC RIGHT #Y
 ADD 1
 SWP
 SUB 1
 MOV ACC RIGHT #H
 JNZ LOOP

@7
ST:MOV LEFT ACC #X
SWP

LOOP: SWP
 MOV ACC RIGHT #X
 MOV LEFT RIGHT #Y
 SUB 1
 SWP
 MOV LEFT ACC #H
 MOV ACC RIGHT
 JNZ LOOP

@8
ST: MOV -1 ACC#DX1
SAV #DX2
LOOP:MOV LEFT DOWN
MOV LEFT DOWN #Y
SWP
ADD 2
SAV
LOOP2: #DX1
 MOV 3 DOWN
 SUB 1
 JNZ LOOP2
 MOV -1 DOWN
MOV LEFT ACC #H
JNZ LOOP
# LE LUXE

@9
